{
    "sessionExpirySec": 30,
    "credentials": {
        "key":"40d6cabc-9cf9-4595-b34f-d577b1a6b0be"
    },
    "redis": {
        "host": "noldap-state-dev.redis.cache.windows.net",
        "port": 6379,
        "accessKey": "/k3LsCl5Ft0abcS0AWclxazgLr7MxjWmJ8C/AQfbOqM="
    },
     "couchbase": {
        "host": "172.32.2.23,172.32.2.24,172.32.2.25",
        "hostAzure": "cciurhkahc.cloudapp.net",
        "bucket": "Identity",
        "password": "staging1234",
        "jsonTypeSession": "Session"
    }
}